// Jest Snapshot v1, https://goo.gl/fbAQLP

exports[`<CharInfo /> should match snapshot 1`] = `
ShallowWrapper {
  Symbol(enzyme.__root__): [Circular],
  Symbol(enzyme.__unrendered__): <WithStyles(CharInfo)
    data={
      Object {
        "age": "",
        "anchor": "",
        "description": "",
        "drive": "",
        "favoriteSong": "",
        "hideout": "",
        "luckPoints": "",
        "name": "",
        "pride": "",
        "problem": "",
        "type": "",
      }
    }
    titles={
      Object {
        "age": "",
        "anchor": "",
        "description": "",
        "drive": "",
        "favoriteSong": "",
        "hideout": "",
        "luckPoints": "",
        "name": "",
        "pride": "",
        "problem": "",
        "type": "",
      }
    }
  />,
  Symbol(enzyme.__renderer__): Object {
    "batchedUpdates": [Function],
    "getNode": [Function],
    "render": [Function],
    "simulateError": [Function],
    "simulateEvent": [Function],
    "unmount": [Function],
  },
  Symbol(enzyme.__node__): Object {
    "instance": null,
    "key": undefined,
    "nodeType": "function",
    "props": Object {
      "classes": Object {
        "mainContainer": "CharInfo-mainContainer-1",
      },
      "data": Object {
        "age": "",
        "anchor": "",
        "description": "",
        "drive": "",
        "favoriteSong": "",
        "hideout": "",
        "luckPoints": "",
        "name": "",
        "pride": "",
        "problem": "",
        "type": "",
      },
      "titles": Object {
        "age": "",
        "anchor": "",
        "description": "",
        "drive": "",
        "favoriteSong": "",
        "hideout": "",
        "luckPoints": "",
        "name": "",
        "pride": "",
        "problem": "",
        "type": "",
      },
    },
    "ref": null,
    "rendered": null,
    "type": [Function],
  },
  Symbol(enzyme.__nodes__): Array [
    Object {
      "instance": null,
      "key": undefined,
      "nodeType": "function",
      "props": Object {
        "classes": Object {
          "mainContainer": "CharInfo-mainContainer-1",
        },
        "data": Object {
          "age": "",
          "anchor": "",
          "description": "",
          "drive": "",
          "favoriteSong": "",
          "hideout": "",
          "luckPoints": "",
          "name": "",
          "pride": "",
          "problem": "",
          "type": "",
        },
        "titles": Object {
          "age": "",
          "anchor": "",
          "description": "",
          "drive": "",
          "favoriteSong": "",
          "hideout": "",
          "luckPoints": "",
          "name": "",
          "pride": "",
          "problem": "",
          "type": "",
        },
      },
      "ref": null,
      "rendered": null,
      "type": [Function],
    },
  ],
  Symbol(enzyme.__options__): Object {
    "adapter": ReactSixteenAdapter {
      "options": Object {
        "enableComponentDidUpdateOnSetState": true,
        "lifecycles": Object {
          "componentDidUpdate": Object {
            "onSetState": true,
          },
          "getDerivedStateFromProps": true,
          "getSnapshotBeforeUpdate": true,
          "setState": Object {
            "skipsComponentDidUpdateOnNullish": true,
          },
        },
      },
    },
  },
}
`;
